<?xml version="1.0" encoding="UTF-8" standalone="no"?>
<!-- Created with Inkscape (http://www.inkscape.org/) -->

<svg
   width="8.4346066mm"
   height="8.4346066mm"
   viewBox="0 0 8.4346066 8.4346066"
   version="1.1"
   id="svg1"
   inkscape:version="1.3.2 (091e20ef0f, 2023-11-25, custom)"
   sodipodi:docname="icon-instagram.svg"
   xmlns:inkscape="http://www.inkscape.org/namespaces/inkscape"
   xmlns:sodipodi="http://sodipodi.sourceforge.net/DTD/sodipodi-0.dtd"
   xmlns="http://www.w3.org/2000/svg"
   xmlns:svg="http://www.w3.org/2000/svg">
  <sodipodi:namedview
     id="namedview1"
     pagecolor="#ffffff"
     bordercolor="#000000"
     borderopacity="0.25"
     inkscape:showpageshadow="2"
     inkscape:pageopacity="0.0"
     inkscape:pagecheckerboard="0"
     inkscape:deskcolor="#d1d1d1"
     inkscape:document-units="mm"
     inkscape:zoom="0.733172"
     inkscape:cx="315.75128"
     inkscape:cy="397.58747"
     inkscape:window-width="1920"
     inkscape:window-height="1011"
     inkscape:window-x="0"
     inkscape:window-y="0"
     inkscape:window-maximized="1"
     inkscape:current-layer="layer1" />
  <defs
     id="defs1" />
  <g
     inkscape:label="Layer 1"
     inkscape:groupmode="layer"
     id="layer1"
     transform="translate(-21.431249,-43.127085)">
    <g
       id="g514"
       transform="matrix(0.35277777,0,0,0.35277777,-31.57803,-214.75059)">
      <circle
         style="fill:#ffffff;stroke:none;stroke-width:1.60269"
         id="path514"
         cx="162.21709"
         cy="742.94641"
         r="11.95456" />
      <path
         d="m 158.68925,734.48764 c -0.90635,0.0428 -1.5253,0.1874 -2.06638,0.40002 -0.55998,0.21824 -1.03463,0.5111 -1.50688,0.98506 -0.47226,0.47396 -0.76308,0.94894 -0.97978,1.50979 -0.20972,0.54227 -0.35181,1.16172 -0.39184,2.06858 -0.0401,0.90686 -0.0488,1.19835 -0.0444,3.51159 0.005,2.31324 0.0147,2.60319 0.0585,3.51193 0.0433,0.90618 0.1874,1.52495 0.40001,2.0662 0.21859,0.55999 0.51111,1.03446 0.98523,1.50689 0.47414,0.47242 0.94878,0.76256 1.51099,0.9796 0.54176,0.20939 1.16139,0.35215 2.06807,0.39186 0.90669,0.0397 1.19853,0.0488 3.51108,0.0445 2.31255,-0.005 2.60371,-0.0147 3.51228,-0.0577 0.90855,-0.043 1.52409,-0.18825 2.06551,-0.39985 0.56,-0.21909 1.03481,-0.5111 1.50689,-0.9854 0.47208,-0.4743 0.76274,-0.94961 0.97926,-1.51081 0.2099,-0.54176 0.35249,-1.16138 0.39185,-2.06739 0.0397,-0.90924 0.049,-1.19954 0.0446,-3.51244 -0.005,-2.3129 -0.0149,-2.60285 -0.058,-3.51125 -0.043,-0.90839 -0.1874,-1.52529 -0.39984,-2.06688 -0.21894,-0.56 -0.51111,-1.03413 -0.98506,-1.5069 -0.47396,-0.47275 -0.94962,-0.76323 -1.51064,-0.97925 -0.5421,-0.20973 -1.16139,-0.35267 -2.06807,-0.39185 -0.90669,-0.0391 -1.19853,-0.0492 -3.51193,-0.0448 -2.31341,0.005 -2.60303,0.0143 -3.51159,0.0586 m 0.0995,15.39906 c -0.83054,-0.0361 -1.28149,-0.17411 -1.58202,-0.28963 -0.39798,-0.15332 -0.68147,-0.33868 -0.98097,-0.6353 -0.2995,-0.2966 -0.4835,-0.5811 -0.63886,-0.97823 -0.11672,-0.30053 -0.25727,-0.75098 -0.29611,-1.58151 -0.0422,-0.89765 -0.0511,-1.16718 -0.056,-3.4414 -0.006,-2.27422 0.004,-2.54339 0.0431,-3.44139 0.0354,-0.82986 0.17428,-1.28133 0.28962,-1.58169 0.15334,-0.39849 0.33801,-0.68146 0.6353,-0.98079 0.29729,-0.29933 0.58095,-0.48368 0.97841,-0.63905 0.30019,-0.11722 0.75063,-0.25657 1.58083,-0.2961 0.89833,-0.0426 1.16753,-0.0511 3.44141,-0.056 2.27387,-0.006 2.54372,0.004 3.44241,0.043 0.82986,0.0362 1.2815,0.17361 1.5815,0.28963 0.39815,0.15333 0.68148,0.33749 0.9808,0.63529 0.29934,0.29781 0.48385,0.58044 0.63922,0.97876 0.11738,0.29933 0.25675,0.74961 0.29592,1.58031 0.0428,0.89834 0.0524,1.16768 0.0565,3.4414 0.005,2.27371 -0.004,2.54373 -0.0432,3.44139 -0.0363,0.83054 -0.17395,1.28168 -0.28963,1.58254 -0.15333,0.3978 -0.33818,0.68147 -0.63564,0.98063 -0.29746,0.29917 -0.58078,0.4835 -0.97841,0.63888 -0.29984,0.11704 -0.75081,0.25674 -1.58032,0.29627 -0.89834,0.0422 -1.16752,0.051 -3.44225,0.0559 -2.27472,0.006 -2.54305,-0.005 -3.44139,-0.0431 m 6.94412,-11.49308 a 1.0221973,1.0221973 0 1 0 1.02015,-1.0239 1.0221973,1.0221973 0 0 0 -1.02015,1.0239 m -7.88966,4.56121 c 0.006,2.4158 1.96671,4.36973 4.38198,4.36513 2.41529,-0.005 4.37059,-1.96636 4.36599,-4.38216 -0.005,-2.41579 -1.96704,-4.37023 -4.38267,-4.36547 -2.41562,0.006 -4.36989,1.96706 -4.3653,4.3825 m 1.53433,-0.003 a 2.8394939,2.8394939 0 1 1 2.8451,2.83388 2.8391531,2.8391531 0 0 1 -2.8451,-2.83388"
         id="path1-0"
         style="fill:#1b1a1a;fill-opacity:1;stroke-width:0.0170366" />
    </g>
  </g>
</svg>
